[gd_scene load_steps=4 format=2]

[ext_resource path="res://Assets/Tilesheet/Spike.png" type="Texture" id=1]
[ext_resource path="res://Scripts/Spike.gd" type="Script" id=2]

[sub_resource type="RectangleShape2D" id=1]
extents = Vector2( 20.3601, 19.5877 )

[node name="Spike" type="Area2D"]
script = ExtResource( 2 )

[node name="Sprite" type="Sprite" parent="."]
texture = ExtResource( 1 )

[node name="CollisionShape2D" type="CollisionShape2D" parent="."]
position = Vector2( 0.396851, 12.3024 )
shape = SubResource( 1 )
[connection signal="body_entered" from="." to="." method="_on_Spike_body_entered"]
